<html>
<head>
	<title>First Website</title>
</head>
<body>

	<p>Hello</p>
	
	<h1>Heading</h1>
	<h2>Heading</h2>
	<h3>Heading</h3>
	<h4>Heading</h4>
	<h5>Heading</h5>
	<h6>Heading</h6>
	
	<marquee direction="right"><img src="run.gif"></marquee>
	
	<center>
	<a href="https://www.facebook.com/"><img src="fb.jpg" height="20px" width="20px"></a>
	
	<center><br>
	
	<table border="2">
		<tr>
			<td>Row 1 cel1</td>
			<td>Row 1 cel2</td>
		</tr>
		
		<tr>
			<td>Row 2 cel1</td>
			<td>Row 2 cel2</td>
		</tr>
	
	</table>
	<br>
	
	Username:&nbsp <input type="text"><br><br>
	Password : &nbsp <input type="password"><br><br>
	Birth date:&nbsp <input type="date"><br><br>
	Age:&nbsp <input type="number"><br><br>
	Gender:&nbsp Male &nbsp <input type="radio"> Female &nbsp <input type="radio"><br><br>
	&nbsp <input type="checkbox"><br><br>
	&nbsp <input type="button" value="Submit"><br><br>
	
	
	<br><br>
	<img src="dog.jpg" height="300px" width="300px">
	
	<video src="OCEAN.mp4" controls="on"></video>
	
	<audio src="music.mp3" controls="on"></audio>
	
	
	
	
	


	
</body>
</html>